lab assignment
…
TC
Girondas

NA
Saggina

question 14

sys |> left_join(facsys, by = "Star_key") |>
  left_join(fac, by = "Faction_key") |>
  mutate(control = (`initial year` <= 2821 & `WHEN ENDED` >= 2821)) |>
  group_by(`Faction Name`) |>
  summarise(active = sum(control) >= 1)

# A tibble: 23 × 2
   `Faction Name`         active
   <chr>                  <lgl> 
 1 Abandoned              NA    
 2 Axumite Providence     NA    
 3 Capellan Confederation NA    
 4 Circinus Federation    TRUE  
 5 Clan Coyote            NA    
 6 Clan Star Adder        NA    
 7 Clans                  NA    
 8 Draconis Combine       NA    
 9 Federated Suns         NA    
10 Free Worlds League     NA    
# ℹ 13 more rows
…
